빅데이터를 이용한 통계분석 2일차 문서화 과제
…
10 그룹별 요약(다시) using %>%

원하는 그룹을 선택하여 데이터를 추출하는 기법

hflights %>%
  group_by(TailNum) %>%
  select(Month, DayofMonth, DayOfWeek) %>%
  summarise(AveMonth = mean(Month, na.rm = TRUE), AveMonth = mean(Month, na.rm = TRUE), AveDayofMonth = mean(DayofMonth, na.rm = TRUE), AveDayofWeek = mean(DayOfWeek, na.rm = TRUE))

## Adding missing grouping variables: `TailNum`

## `summarise()` ungrouping output (override with `.groups` argument)

## # A tibble: 3,320 x 4
##    TailNum  AveMonth AveDayofMonth AveDayofWeek
##    <chr>       <dbl>         <dbl>        <dbl>
##  1 ""           3.25          10.0         4.32
##  2 "N0EGMQ"     6.42          16.4         3.42
##  3 "N10156"     6.23          14.0         3.83
##  4 "N10575"     8.49          13.2         3.26
##  5 "N11106"     7.37          15.0         4.10
##  6 "N11107"     7.18          14.8         4.04
##  7 "N11109"     6.24          15.4         3.92
##  8 "N11113"     6.77          15.4         3.98
##  9 "N11119"     7.07          16.0         4.03
## 10 "N11121"     6.46          16.2         4.05
## # ... with 3,310 more rows
…
midwest

## # A tibble: 437 x 28
##      PID county state  area poptotal popdensity popwhite popblack popamerindian
##    <int> <chr>  <chr> <dbl>    <int>      <dbl>    <int>    <int>         <int>
##  1   561 ADAMS  IL    0.052    66090      1271.    63917     1702            98
##  2   562 ALEXA~ IL    0.014    10626       759      7054     3496            19
##  3   563 BOND   IL    0.022    14991       681.    14477      429            35
##  4   564 BOONE  IL    0.017    30806      1812.    29344      127            46
##  5   565 BROWN  IL    0.018     5836       324.     5264      547            14
##  6   566 BUREAU IL    0.05     35688       714.    35157       50            65
##  7   567 CALHO~ IL    0.017     5322       313.     5298        1             8
##  8   568 CARRO~ IL    0.027    16805       622.    16519      111            30
##  9   569 CASS   IL    0.024    13437       560.    13384       16             8
## 10   570 CHAMP~ IL    0.058   173025      2983.   146506    16559           331
## # ... with 427 more rows, and 19 more variables: popasian <int>,
## #   popother <int>, percwhite <dbl>, percblack <dbl>, percamerindan <dbl>,
## #   percasian <dbl>, percother <dbl>, popadults <int>, perchsd <dbl>,
## #   percollege <dbl>, percprof <dbl>, poppovertyknown <int>,
## #   percpovertyknown <dbl>, percbelowpoverty <dbl>, percchildbelowpovert <dbl>,
## #   percadultpoverty <dbl>, percelderlypoverty <dbl>, inmetro <int>,
## #   category <chr>
…
